{
    "version": "1.3.17",
    "details_url": "https://wjd-frontend-wordpress-theme.s3.eu-central-1.amazonaws.com/master/wjd-theme.html",
    "download_url": "https://wjd-frontend-wordpress-theme.s3.eu-central-1.amazonaws.com/master/wjd-theme.zip"
}